﻿Family,Mounting,Name,CRI,CCT2700,CCT3000,CCT3500,CCT4000,CCT5000,Power,Driver,Lumen_Range_Detail ,Lumen Range,Controls,Region,Retrofit,Image
V2M ,X39,V2M LAMP EX39 80 CRI,80,,,,4000,5000,165,VL,25000,25000,None,,,images/X39_80.png
V2M ,X39,V2M LAMP EX39 90 CRI,90,2700,3000,3500,,,165,VL,18750-19900,15000-20000,None,,,images/X39_90.png
V2M ,X39,V2M LAMP EX39 HYBRID,80,,,,4000,5000,165,VH,25000,25000,None,,,images/X39_80.png
V2M ,E40,V2M LAMP E40 80 CRI HYBRID,80,,,,4000,5000,165,VH,25000,25000,None,,,images/E40_80.png
V2M ,E40,V2M LAMP E40 90 CRI HYBRID,90,2700,3000,3500,,,165,VH,15000-20000,15000-20000,None,,,images/E40_90.png
V2M ,FIX,V2M LAMP FIXTURE 80 CRI,80,,,,4000,5000,165,VL,25000,25000,None,,,images/Fix.png
V2M ,FEU,V2M FIXTURE WORLD WIDE,80,,,,4000,5000,165,VL,25000,25000,None,,,images/Fix.png
V2L,FIX,V2L FIXTURE 80 CRI,80,,,,4000,5000,105-150,VL,15000-20000,15000-20000,None,,,images/Fix.png
V2L,FEU,V2L FIXTURE WORLD WIDE,80,,,,4000,5000,105-150,VL,15000-20000,15000-20000,None,,,images/Fix.png
V2L,X39,V2L LAMP EX39 80 CRI,80,,,3500,4000,5000,105-150,VL,15000-20000,15000-20000,None,,,images/X39_80.png
V2L,X39,V2L LAMP EX39 90 CRI,90,2700,3000,3500,,,105-150,VL,15000-20000,15000-20000,None,,,images/X39_90.png
V2L,X39,V2L LAMP EX39 HYBRID,80,,,,4000,5000,105-150,VH,15000-20000,15000-20000,None,,,images/X39_80.png
V2L,E40,V2L LAMP E40 80 CRI HYBRID,80,,,,4000,5000,105-150,VH,15000-20000,15000-20000,None,,,images/E40_80.png
V2L,E40,V2L LAMP E40 90 CRI HYBRID,90,2700,3000,3500,,,105-150,VH,15000-20000,15000-20000,None,,,images/E40_90.png
VA6,E26,VA6 LAMP E26 30 CRI,80,,3000,3500,4000,5000,30,VL,3850-4000,<5000,None,,,images/VA6_E26.png
VA6,E26,VA6 LAMP E26 30 CRI HYBRID,80,,3000,3500,4000,5000,30,VH,3850-4000,<5000,None,,,images/VA6_E26.png
VA6,E26,VA6 LAMP E26 45 CRI,80,,3000,3500,4000,5000,45,VL,6800-7000,5000-10000,None,,,images/VA6_E26.png
VA6,E26,VA6 LAMP E26 45 CRI HYBRID,80,,3000,3500,4000,5000,45,VH,6800-7000,5000-10000,None,,,images/VA6_E26.png
VA6,E27,VA6 LAMP E27 30 CRI,80,,3000,3500,4000,5000,30,VL,3850-4000,<5000,None,,,images/VA6_E27.png
VA6,E27,VA6 LAMP E27 30 CRI HYBRID,80,,3000,3500,4000,5000,30,VH,3850-4000,<5000,None,,,images/VA6_E27.png
VA6,E27,VA6 LAMP E27 45 CRI,80,,3000,3500,4000,5000,45,VL,6800-7000,5000-10000,None,,,images/VA6_E27.png
VA6,E27,VA6 LAMP E27 45 CRI HYBRID,80,,3000,3500,4000,5000,45,VH,6800-7000,5000-10000,None,,,images/VA6_E27.png
VA6,E39,VA6 LAMP E39 30 CRI,80,,3000,3500,4000,5000,30,VL,3850-4000,<5000,None,,,images/VA6_E39.png
VA6,E39,VA6 LAMP E39 30 CRI HYBRID,80,,3000,3500,4000,5000,30,VH,3850-4000,<5000,None,,,images/VA6_E39.png
VA6,E39,VA6 LAMP E39 45 CRI,80,,3000,3500,4000,5000,45,VL,6800-7000,5000-10000,None,,,images/VA6_E39.png
VA6,E39,VA6 LAMP E39 45 CRI HYBRID,80,,3000,3500,4000,5000,45,VH,6800-7000,5000-10000,None,,,images/VA6_E39.png
VA6,E40,VA6 LAMP E40 30 CRI HYBRID,80,,3000,3500,4000,5000,30,VH,3850-4000,<5000,None,,,images/VA6_E40.png
VA6,E40,VA6 LAMP E40 45 CRI HYBRID,80,,3000,3500,4000,5000,45,VH,6800-7000,5000-10000,None,,,images/VA6_E40.png
VA6,E40,VA6 LAMP E40 30 CRI ,80,,3000,3500,4000,5000,30,VL,3850-4000,<5000,None,,,images/VA6_E40.png
VA6,E40,VA6 LAMP E40 45 CRI,80,,3000,3500,4000,5000,45,VL,6800-7000,5000-10000,None,,,images/VA6_E40.png
